"Position","Name","Salary","GameInfo","AvgPointsPerGame","teamAbbrev"
"WR","Antonio Brown",9200,"Bal@Pit 08:25PM ET",31.867,"Pit"
"RB","Le'Veon Bell",7700,"Bal@Pit 08:25PM ET",26.200,"Pit"
"QB","Ben Roethlisberger",7300,"Bal@Pit 08:25PM ET",20.793,"Pit"
"WR","Brandon Marshall",6800,"NYJ@Mia 09:30AM ET",24.400,"NYJ"
"WR","Jarvis Landry",6500,"NYJ@Mia 09:30AM ET",19.967,"Mia"
"WR","Steve Smith Sr.",6200,"Bal@Pit 08:25PM ET",25.967,"Bal"
"QB","Ryan Tannehill",6200,"NYJ@Mia 09:30AM ET",19.527,"Mia"
"QB","Joe Flacco",6000,"Bal@Pit 08:25PM ET",17.573,"Bal"
"RB","Justin Forsett",6000,"Bal@Pit 08:25PM ET",9.500,"Bal"
"QB","Ryan Fitzpatrick",5100,"NYJ@Mia 09:30AM ET",16.347,"NYJ"
"QB","Mike Vick",5000,"Bal@Pit 08:25PM ET",0.510,"Pit"
"QB","Matt Moore",5000,"NYJ@Mia 09:30AM ET",0,"Mia"
"QB","Matt Schaub",5000,"Bal@Pit 08:25PM ET",0,"Bal"
"QB","Landry Jones",5000,"Bal@Pit 08:25PM ET",0,"Pit"
"QB","Bryce Petty",5000,"NYJ@Mia 09:30AM ET",0,"NYJ"
"QB","Geno Smith",5000,"NYJ@Mia 09:30AM ET",0,"NYJ"
"WR","Eric Decker",4800,"NYJ@Mia 09:30AM ET",17.700,"NYJ"
"RB","Chris Ivory",4800,"NYJ@Mia 09:30AM ET",15.500,"NYJ"
"RB","Lamar Miller",4700,"NYJ@Mia 09:30AM ET",9.067,"Mia"
"RB","DeAngelo Williams",4600,"Bal@Pit 08:25PM ET",16.200,"Pit"
"WR","Breshad Perriman",4500,"Bal@Pit 08:25PM ET",0,"Bal"
"WR","Rishard Matthews",4400,"NYJ@Mia 09:30AM ET",22.067,"Mia"
"TE","Heath Miller",3700,"Bal@Pit 08:25PM ET",10.533,"Pit"
"RB","Bilal Powell",3700,"NYJ@Mia 09:30AM ET",11.233,"NYJ"
"WR","Darrius Heyward-Bey",3600,"Bal@Pit 08:25PM ET",10.800,"Pit"
"WR","Markus Wheaton",3500,"Bal@Pit 08:25PM ET",7.600,"Pit"
"TE","Crockett Gillmore",3500,"Bal@Pit 08:25PM ET",12.367,"Bal"
"TE","Jordan Cameron",3400,"NYJ@Mia 09:30AM ET",8.367,"Mia"
"WR","Kamar Aiken",3300,"Bal@Pit 08:25PM ET",4.600,"Bal"
"WR","Quincy Enunwa",3200,"NYJ@Mia 09:30AM ET",4.567,"NYJ"
"DST","Jets ",3100,"NYJ@Mia 09:30AM ET",11.333,"NYJ"
"WR","Greg Jennings",3000,"NYJ@Mia 09:30AM ET",2.633,"Mia"
"WR","Jeremy Kerley",3000,"NYJ@Mia 09:30AM ET",5.100,"NYJ"
"RB","Will Johnson",3000,"Bal@Pit 08:25PM ET",2.233,"Pit"
"WR","Chris Owusu",3000,"NYJ@Mia 09:30AM ET",4.750,"NYJ"
"RB","Jordan Todman",3000,"Bal@Pit 08:25PM ET",0.367,"Pit"
"RB","Jonas Gray",3000,"NYJ@Mia 09:30AM ET",4.900,"Mia"
"RB","Tommy Bohanon",3000,"NYJ@Mia 09:30AM ET",0.067,"NYJ"
"WR","Michael Campanaro",3000,"Bal@Pit 08:25PM ET",1.900,"Bal"
"RB","Kyle Juszczyk",3000,"Bal@Pit 08:25PM ET",3.633,"Bal"
"RB","Zac Stacy",3000,"NYJ@Mia 09:30AM ET",1.050,"NYJ"
"WR","Dri Archer",3000,"Bal@Pit 08:25PM ET",0.000,"Pit"
"WR","Marlon Brown",3000,"Bal@Pit 08:25PM ET",4.200,"Bal"
"WR","Kenny Stills",3000,"NYJ@Mia 09:30AM ET",1.667,"Mia"
"RB","Roosevelt Nix",3000,"Bal@Pit 08:25PM ET",0.000,"Pit"
"WR","Matt Hazel",3000,"NYJ@Mia 09:30AM ET",0,"Mia"
"WR","Sammie Coates",3000,"Bal@Pit 08:25PM ET",0.000,"Pit"
"RB","Javorius Allen",3000,"Bal@Pit 08:25PM ET",2.433,"Bal"
"WR","Darren Waller",3000,"Bal@Pit 08:25PM ET",0.000,"Bal"
"WR","DeVante Parker",3000,"NYJ@Mia 09:30AM ET",2.967,"Mia"
"WR","Devin Smith",3000,"NYJ@Mia 09:30AM ET",6.900,"NYJ"
"RB","Raheem Mostert",3000,"NYJ@Mia 09:30AM ET",0.000,"Mia"
"RB","Damien Williams",3000,"NYJ@Mia 09:30AM ET",5.167,"Mia"
"RB","Lorenzo Taliaferro",3000,"Bal@Pit 08:25PM ET",7.600,"Bal"
"DST","Steelers ",2900,"Bal@Pit 08:25PM ET",6.667,"Pit"
"DST","Dolphins ",2700,"NYJ@Mia 09:30AM ET",3.667,"Mia"
"DST","Ravens ",2700,"Bal@Pit 08:25PM ET",8.667,"Bal"
"TE","Matt Spaeth",2500,"Bal@Pit 08:25PM ET",0.000,"Pit"
"TE","Kellen Davis",2500,"NYJ@Mia 09:30AM ET",0.000,"NYJ"
"TE","Jeff Cumberland",2500,"NYJ@Mia 09:30AM ET",1.000,"NYJ"
"TE","Jake Stoneburner",2500,"NYJ@Mia 09:30AM ET",6.050,"Mia"
"TE","Dion Sims",2500,"NYJ@Mia 09:30AM ET",0.000,"Mia"
"TE","Nick Boyle",2500,"Bal@Pit 08:25PM ET",1.300,"Bal"
"TE","Maxx Williams",2500,"Bal@Pit 08:25PM ET",3.900,"Bal"
"TE","Jesse James",2500,"Bal@Pit 08:25PM ET",0,"Pit"
